Biostat 212a Homework 5
…
Computational engine: kernlab 

3.4.4 Tuning grid

param_grid <- grid_regular(
  cost(range = c(-3, 2)),
  degree(range = c(1, 5)),
  #scale_factor(range = c(-1, 1)),
  levels = c(5)
  )
param_grid

# A tibble: 25 × 2
    cost degree
   <dbl>  <dbl>
 1 0.125      1
 2 0.297      1
 3 0.707      1
 4 1.68       1
 5 4          1
 6 0.125      2
 7 0.297      2
 8 0.707      2
 9 1.68       2
10 4          2
# ℹ 15 more rows
…
Visualize CV results:

svm_fit %>%
  collect_metrics() %>%
  print(width = Inf) %>%
  filter(.metric == "roc_auc" ) %>%
  ggplot(mapping = aes(x = degree, y = mean)) +
  geom_point() +
  geom_line() +
  labs(x = "Cost", y = "CV AUC") +
  scale_x_log10()

# A tibble: 50 × 8
    cost degree .metric  .estimator  mean     n std_err .config              
   <dbl>  <dbl> <chr>    <chr>      <dbl> <int>   <dbl> <chr>                
 1 0.125      1 accuracy binary     0.86      5  0.0218 Preprocessor1_Model01
 2 0.125      1 roc_auc  binary     0.934     5  0.0254 Preprocessor1_Model01
 3 0.297      1 accuracy binary     0.865     5  0.0232 Preprocessor1_Model02
 4 0.297      1 roc_auc  binary     0.937     5  0.0276 Preprocessor1_Model02
 5 0.707      1 accuracy binary     0.87      5  0.0310 Preprocessor1_Model03
 6 0.707      1 roc_auc  binary     0.934     5  0.0335 Preprocessor1_Model03
 7 1.68       1 accuracy binary     0.86      5  0.0359 Preprocessor1_Model04
 8 1.68       1 roc_auc  binary     0.935     5  0.0316 Preprocessor1_Model04
 9 4          1 accuracy binary     0.865     5  0.035  Preprocessor1_Model05
10 4          1 roc_auc  binary     0.934     5  0.0305 Preprocessor1_Model05
# ℹ 40 more rows
…
Computational engine: kernlab 

3.5.4 Tuning grid

param_grid <- grid_regular(
  cost(range = c(-8, 5)),
  rbf_sigma(range = c(-5, -3)),
  levels = c(14, 5)
  )
param_grid

# A tibble: 70 × 2
      cost rbf_sigma
     <dbl>     <dbl>
 1 0.00391   0.00001
 2 0.00781   0.00001
 3 0.0156    0.00001
 4 0.0312    0.00001
 5 0.0625    0.00001
 6 0.125     0.00001
 7 0.25      0.00001
 8 0.5       0.00001
 9 1         0.00001
10 2         0.00001
# ℹ 60 more rows
…
Visualize CV results:

svm_fit %>%
  collect_metrics() %>%
  print(width = Inf) %>%
  filter(.metric == "roc_auc" ) %>%
  ggplot(mapping = aes(x = cost, y = mean, alpha = rbf_sigma)) +
  geom_point() +
  geom_line(aes(group = rbf_sigma)) +
  labs(x = "Cost", y = "CV AUC") +
  scale_x_log10()

# A tibble: 140 × 8
      cost rbf_sigma .metric  .estimator  mean     n std_err
     <dbl>     <dbl> <chr>    <chr>      <dbl> <int>   <dbl>
 1 0.00391   0.00001 accuracy binary     0.59      5  0.0367
 2 0.00391   0.00001 roc_auc  binary     0.857     5  0.0493
 3 0.00781   0.00001 accuracy binary     0.59      5  0.0367
 4 0.00781   0.00001 roc_auc  binary     0.857     5  0.0493
 5 0.0156    0.00001 accuracy binary     0.59      5  0.0367
 6 0.0156    0.00001 roc_auc  binary     0.857     5  0.0493
 7 0.0312    0.00001 accuracy binary     0.59      5  0.0367
 8 0.0312    0.00001 roc_auc  binary     0.857     5  0.0493
 9 0.0625    0.00001 accuracy binary     0.59      5  0.0367
10 0.0625    0.00001 roc_auc  binary     0.857     5  0.0493
   .config              
   <chr>                
 1 Preprocessor1_Model01
 2 Preprocessor1_Model01
 3 Preprocessor1_Model02
 4 Preprocessor1_Model02
 5 Preprocessor1_Model03
 6 Preprocessor1_Model03
 7 Preprocessor1_Model04
 8 Preprocessor1_Model04
 9 Preprocessor1_Model05
10 Preprocessor1_Model05
# ℹ 130 more rows
…
